…
    ## `summarise()` ungrouping output (override with `.groups` argument)

    ## # A tibble: 39 x 3
    ##    aisle_id  n_obs freq_rank
    ##       <int>  <int>     <int>
    ##  1       83 150609         1
    ##  2       24 150473         2
    ##  3      123  78493         3
    ##  4      120  55240         4
    ##  5       21  41699         5
    ##  6      115  36617         6
    ##  7       84  32644         7
    ##  8      107  31269         8
    ##  9       91  26240         9
    ## 10      112  23635        10
    ## # … with 29 more rows
